…
# Identically
time_cut_width(flights$time_hour, "1 hour") |> head()
#> <time_interval> [width:1h]
#> [1] [2013-01-01 05:00:00, +1h) [2013-01-01 05:00:00, +1h)
#> [3] [2013-01-01 05:00:00, +1h) [2013-01-01 05:00:00, +1h)
#> [5] [2013-01-01 06:00:00, +1h) [2013-01-01 05:00:00, +1h)
```

A common task is to places dates into larger time intervals,
e.g. converting hourly data into weekly data.

``` r
time_cut_width(flights$time_hour, "week") |> 
    interval_count()
#> # A tibble: 53 × 2
#>    interval                       n
#>    <tm_ntrvl>                 <int>
#>  1 [2013-01-01 05:00:00, +1W)  6099
#>  2 [2013-01-08 05:00:00, +1W)  6109
#>  3 [2013-01-15 05:00:00, +1W)  6018
#>  4 [2013-01-22 05:00:00, +1W)  6060
#>  5 [2013-01-29 05:00:00, +1W)  6072
#>  6 [2013-02-05 05:00:00, +1W)  6101
#>  7 [2013-02-12 05:00:00, +1W)  6255
#>  8 [2013-02-19 05:00:00, +1W)  6394
#>  9 [2013-02-26 05:00:00, +1W)  6460
#> 10 [2013-03-05 05:00:00, +1W)  6549
#> # ℹ 43 more rows
```

To get full weeks, simply utilise the `from` arg with `floor_date()`

``` r
time_cut_width(
    flights$time_hour, "week" , from = min(floor_date(flights$time_hour, "week"))
) |> 
  interval_count()
#> # A tibble: 53 × 2
#>    interval              n
#>    <tm_ntrvl>        <int>
#>  1 [2012-12-30, +1W)  4334
#>  2 [2013-01-06, +1W)  6118
#>  3 [2013-01-13, +1W)  6076
#>  4 [2013-01-20, +1W)  6012
#>  5 [2013-01-27, +1W)  6072
#>  6 [2013-02-03, +1W)  6089
#>  7 [2013-02-10, +1W)  6217
#>  8 [2013-02-17, +1W)  6349
#>  9 [2013-02-24, +1W)  6411
#> 10 [2013-03-03, +1W)  6551
#> # ℹ 43 more rows
```
…
## Convert `ts`, `mts`, `xts`, `zoo`and `timeSeries` objects using `ts_as_tbl`

``` r
eu_stock <- EuStockMarkets |>
  ts_as_tbl()
eu_stock
#> # A tibble: 7,440 × 3
#>    group  time value
#>    <chr> <dbl> <dbl>
#>  1 DAX   1991. 1629.
#>  2 DAX   1992. 1614.
#>  3 DAX   1992. 1607.
#>  4 DAX   1992. 1621.
#>  5 DAX   1992. 1618.
#>  6 DAX   1992. 1611.
#>  7 DAX   1992. 1631.
#>  8 DAX   1992. 1640.
#>  9 DAX   1992. 1635.
#> 10 DAX   1992. 1646.
#> # ℹ 7,430 more rows
```
…
flights_monthly
#> # A tibble: 336,776 x 2
#> # Time:     date [12]
#> # Width:    month
#> # Range:    2013-01-01 -- 2014-01-01
#>    date              arr_delay
#>    <tm_ntrvl>            <dbl>
#>  1 [2013-01-01, +1M)        11
#>  2 [2013-01-01, +1M)        20
#>  3 [2013-01-01, +1M)        33
#>  4 [2013-01-01, +1M)       -18
#>  5 [2013-01-01, +1M)       -25
#>  6 [2013-01-01, +1M)        12
#>  7 [2013-01-01, +1M)        19
#>  8 [2013-01-01, +1M)       -14
#>  9 [2013-01-01, +1M)        -8
#> 10 [2013-01-01, +1M)         8
#> # ℹ 336,766 more rows
```
…
If the time unit is left unspecified, the `time` functions try to find
the highest time unit possible.

``` r
flights |>
  time_by(time_hour)
#> # A tibble: 336,776 x 20
#> # Time:     time_hour [6,936]
#> # Width:    hour
#> # Range:    2013-01-01 05:00:00 -- 2014-01-01
#>     year month   day dep_time sched_dep_time dep_delay arr_time sched_arr_time
#>    <int> <int> <int>    <int>          <int>     <dbl>    <int>          <int>
#>  1  2013     1     1      517            515         2      830            819
#>  2  2013     1     1      533            529         4      850            830
#>  3  2013     1     1      542            540         2      923            850
#>  4  2013     1     1      544            545        -1     1004           1022
#>  5  2013     1     1      554            600        -6      812            837
#>  6  2013     1     1      554            558        -4      740            728
#>  7  2013     1     1      555            600        -5      913            854
#>  8  2013     1     1      557            600        -3      709            723
#>  9  2013     1     1      557            600        -3      838            846
#> 10  2013     1     1      558            600        -2      753            745
#> # ℹ 336,766 more rows
#> # ℹ 12 more variables: arr_delay <dbl>, carrier <chr>, flight <int>,
#> #   tailnum <chr>, origin <chr>, dest <chr>, air_time <dbl>, distance <dbl>,
#> #   hour <dbl>, minute <dbl>, time_hour <tm_ntrvl>, date <date>
```
…
We can efficiently do the same for all flight numbers

``` r
# We use fdistinct with sort as it's much faster and simpler to write
all_flights <- flights |>
  f_distinct(flight, time_hour, .sort = TRUE)
all_flights <- all_flights |>
  mutate(elapsed = time_elapsed(time_hour, g = flight, fill = 0))

# Flight numbers with largest relative deviation in time between flights
all_flights |>
  tidy_quantiles(elapsed, .by = flight, pivot = "wide") |>
  mutate(relative_iqr = p75 / p25) |>
  f_arrange(desc(relative_iqr))
#> # A tibble: 3,844 × 7
#>    flight    p0   p25   p50   p75  p100 relative_iqr
#>     <int> <dbl> <dbl> <dbl> <dbl> <dbl>        <dbl>
#>  1   3664     0    12    24 3252   6480         271 
#>  2   5709     0    12    24 3080.  6137         257.
#>  3    513     0    12    24 2250.  4477         188.
#>  4   3364     0    12    24 2204.  4385         184.
#>  5   1578     0    24    48 4182.  8317         174.
#>  6   1830     0     1   167  168    168         168 
#>  7   1569     0    18   105 2705   2787         150.
#>  8   1997     0    18    96 2158   8128         120.
#>  9    663     0    24   119 2604   3433         108.
#> 10    233     0     7    14  718   1422         103.
#> # ℹ 3,834 more rows
```
…
#### Easily join common date information to your data

``` r
flights_calendar <- flights |>
    f_select(time_hour) |>
    reframe(calendar(time_hour))
```

Now that gaps in time have been filled and we have joined our date
table, it is easy to count by any time dimension we like

``` r
flights_calendar |> 
  f_count(isoyear, isoweek)
#> # A tibble: 53 × 3
#>    isoyear isoweek     n
#>      <int>   <int> <int>
#>  1    2013       1  5166
#>  2    2013       2  6114
#>  3    2013       3  6034
#>  4    2013       4  6049
#>  5    2013       5  6063
#>  6    2013       6  6104
#>  7    2013       7  6236
#>  8    2013       8  6381
#>  9    2013       9  6444
#> 10    2013      10  6546
#> # ℹ 43 more rows
flights_calendar |> 
  f_count(isoweek = iso_week(time))
#> # A tibble: 53 × 2
#>    isoweek      n
#>    <chr>    <int>
#>  1 2013-W01  5166
#>  2 2013-W02  6114
#>  3 2013-W03  6034
#>  4 2013-W04  6049
#>  5 2013-W05  6063
#>  6 2013-W06  6104
#>  7 2013-W07  6236
#>  8 2013-W08  6381
#>  9 2013-W09  6444
#> 10 2013-W10  6546
#> # ℹ 43 more rows
…
